<?xml version="1.0" encoding="UTF-8" standalone="no"?>
<svg
   xmlns:dc="http://purl.org/dc/elements/1.1/"
   xmlns:cc="http://creativecommons.org/ns#"
   xmlns:rdf="http://www.w3.org/1999/02/22-rdf-syntax-ns#"
   xmlns:svg="http://www.w3.org/2000/svg"
   xmlns="http://www.w3.org/2000/svg"
   xmlns:sodipodi="http://sodipodi.sourceforge.net/DTD/sodipodi-0.dtd"
   xmlns:inkscape="http://www.inkscape.org/namespaces/inkscape"
   id="svg2"
   sodipodi:docname="cd-icon-work.svg"
   viewBox="0 0 32 32"
   version="1.1"
   inkscape:version="0.91 r13725"
   width="32"
   height="32">
  <defs
     id="defs6" />
  <sodipodi:namedview
     id="namedview8"
     bordercolor="#666666"
     inkscape:pageshadow="2"
     guidetolerance="10"
     pagecolor="#ffffff"
     gridtolerance="10"
     inkscape:window-maximized="0"
     inkscape:zoom="1.2685914"
     objecttolerance="10"
     borderopacity="1"
     inkscape:current-layer="svg2"
     inkscape:cx="47.620337"
     inkscape:cy="-179.91172"
     inkscape:window-y="30"
     inkscape:window-x="0"
     inkscape:window-width="1680"
     showgrid="false"
     inkscape:pageopacity="0"
     inkscape:window-height="1020"
     fit-margin-top="0"
     fit-margin-left="0"
     fit-margin-right="0"
     fit-margin-bottom="0" />
  <path
     id="path4"
     inkscape:connector-curvature="0"
     d="m 4,0.40000012 -0.4,0.79999998 4.2,2.4 c 0,2 -0.8,3.6 -2.6,4.6 l -4.2,-2.4 -0.2,0.4 c 1,3 3,4.9999999 7,4.9999999 1,0 4,3 5.6,4.6 l 3.2,-3.2 C 15,11 11.4,7.4000001 11.4,6.4000001 c 0,-3.6 -1,-5.99999998 -7.4,-5.99999998 z m 25,0.99999998 -4,2.8 -0.4,1.6 L 13,17.4 l -1.6,-1 -0.8,0.8 c 0,2.4 -2.8,3.6 -4,3.6 L 0,27.4 c 0,2 2.2,4.2 4.2,4.2 L 10.8,25 c 0,-1.2 1.2,-4 3.6,-4 l 0.8,-0.8 -1,-1.6 11.6,-11.5999999 1.6,-0.4 2.8,-4 -1.2,-1.2 z M 19,15 15.8,18.2 c 2.4,2.4 5.6,5.6 5.6,6.6 0,3.6 1,6 7.4,6 L 29.2,30 25,27.6 c 0,-2 0.8,-3.6 2.6,-4.6 L 31.8,25.4 32,25 c -1,-3 -3,-5 -7,-5 -1,0 -3.6,-2.6 -6,-5 z"
     style="fill:#ffffff;fill-opacity:1" />
  <metadata
     id="metadata6">
    <rdf:RDF>
      <cc:Work>
        <dc:format>image/svg+xml</dc:format>
        <dc:type
           rdf:resource="http://purl.org/dc/dcmitype/StillImage" />
        <cc:license
           rdf:resource="http://creativecommons.org/publicdomain/zero/1.0/" />
        <dc:publisher>
          <cc:Agent
             rdf:about="http://openclipart.org/">
            <dc:title>Openclipart</dc:title>
          </cc:Agent>
        </dc:publisher>
        <dc:title></dc:title>
      </cc:Work>
      <cc:License
         rdf:about="http://creativecommons.org/publicdomain/zero/1.0/">
        <cc:permits
           rdf:resource="http://creativecommons.org/ns#Reproduction" />
        <cc:permits
           rdf:resource="http://creativecommons.org/ns#Distribution" />
        <cc:permits
           rdf:resource="http://creativecommons.org/ns#DerivativeWorks" />
      </cc:License>
    </rdf:RDF>
  </metadata>
</svg>
